Kurve	eine glatte Abbildung $(a, b) \to \mathbb{R}^3$		Geometrie	Definition	Lokale Kurventheorie			Intervall, aus dem abgebildet wird, sollte offen sein, da es sonst Probleme mit dem fehlenden Differenzenquotienten in $a$ und $b$ gäbe und damit mit der Glattheit von $\alpha$.							
Kurvenlänge $\operatorname{L}(\alpha)$	$= \int \limits_{a}^{b} |\alpha'(t)| dt$ von Kurve $\alpha$		Geometrie	Formel	Lokale Kurventheorie										
Umparametrisierung $\varphi$	Diffeomorphismus $J \to (a, b)$, wobei Kurve von $(a, b) \to \mathbb{R}^3$		Geometrie	Definition	Lokale Kurventheorie										
Reguläre Kurve	Kurve $\alpha:I \to \mathbb{R}^3$ mit Ableitung $\neq 0$ für alle $t \in I$		Geometrie	Definition	Lokale Kurventheorie										
Nach Bogenlänge parametrisiert	Kurve $\alpha$ mit $|\alpha '(s)| = 1 \; \forall s \in I$		Geometrie	Definition	Lokale Kurventheorie										
Krümmung $\operatorname{k}(s)$	$|\alpha ''(s)|$, mit $\alpha$ parametrisiert nach Bogenlänge		Geometrie	Formel	Lokale Kurventheorie			$= \theta'(s)$ für Ebene Kurven, wenn $\theta(s)$ definiert als Winkel zwischen $\operatorname{t}(s)$ und der $x$-Achse							
Krümmungsradius	$\frac{1}{k(s)}$ von allgemeiner Kurve $\alpha$		Geometrie	Definition	Lokale Kurventheorie										
Tangentialvektor $\operatorname{t}(s)$ von Kurve $\alpha$	$\alpha '(s)$ von Kurve $\alpha$		Geometrie	Definition	Lokale Kurventheorie										
Normalenvektor $\operatorname{n}(s)$ von Kurve $\alpha$	$\frac{\alpha ''(s)}{|\alpha ''(s)|}$ von Kurve $\alpha$		Geometrie	Definition	Lokale Kurventheorie										
Binormalenvektor $\operatorname{b}(s)$ von Kurve $\alpha$	$\operatorname{t}(s) \times \operatorname{n}(s)$		Geometrie	Definition	Lokale Kurventheorie			$t$ und $n$ sind normiert							
Frenet-Dreibein	$\operatorname{t}(s), \operatorname{n}(s), \operatorname{b}(s)$, pos. orientierte ON-Basis des $\mathbb{R}^3$ an Kurve $\alpha$ in $s$		Geometrie	Definition	Lokale Kurventheorie										
Schmiegeebene	t-n-Ebene		Geometrie	Definition	Lokale Kurventheorie										
Normalenebene	n-b-Ebene		Geometrie	Definition	Lokale Kurventheorie										
Torsion $|\tau(s)|$	$|\operatorname{b}'(s)|$		Geometrie	Formel	Lokale Kurventheorie		Geschwindigkeit, mit der sich die Schmiegeebene der Kurve $\alpha$ dreht								
Frenet-Formeln	$\operatorname{t}'(s) = \operatorname{k}(s) \operatorname{n}(s)$<br/>$\operatorname{n}'(s) = -\operatorname{k}(s) \operatorname{t}(s) -\tau (s) \operatorname{b}(s)$<br/>$\operatorname{b}'(s) = \tau (s) \operatorname{n}(s)$		Geometrie	Formel	Lokale Kurventheorie			Manchmal $-\tau$ statt $\tau$ je nach Literatur und Interpretation von $\tau$							das eine da!
Euklidische Bewegung	eine abstandserhaltende Abbildung $\mathbb{R}^3 \to \mathbb{R}^3$		Geometrie	Definition	Lokale Kurventheorie		d.h. $|\operatorname{M}(p) - \operatorname{M}(q)| = |p - q| \; \forall p,q \in \mathbb{R}^3$								
Hauptsatz der lokalen Kurventheorie	"(a) Zu glatter Funktion $\operatorname{k}, \tau: I \to \mathbb{R}$ mit $\operatorname{k}(s) &gt; 0 \; \forall s$ existiert eine nach Bogenlänge parametrisierte Kurve $\alpha: I \to \mathbb{R}^3$ mit Krümmung $\operatorname{k}(s)$ und Torsion $\tau(s)$<br/>(b) Zwei nach Bogenlänge parametrisierte Kurven $\alpha, \bar{\alpha}: I \to \mathbb{R}^3$ mit derselben Krümmung und Torsion unterscheiden sich nur durch eine orientierungserhaltende euklidische Bewegung, d.h. $\bar{\alpha}(s) = A \alpha(s) + b, b \in \mathbb{R}^3, A \in \operatorname{SO}(3)$<br/>„Kurven sind durch ihre Krümmung und Torsion bis auf euklidische Bewegung eindeutig bestimmt."""		Geometrie	Satz	Lokale Kurventheorie										
Glatter Rand eines beschränkten Gebietes $R \subset \mathbb{R}^2$	Rand eines beschränkten Gebietes $R \subset \mathbb{R}^2$, der eine disjunkte Vereinigung geschlossener, regulärer Kurven ist		Geometrie	Definition	Globale Theorie ebener Kurven										
Satz von Fubini	Für $R = \{(x, y) \in \mathbb{R}^2 \; | \; a \le x \le b, f(x) \le y \le g(x)\}$ mit stetigen Funktionen $f, g: [a, b] \to \mathbb{R}$ gilt $\iint \limits_R F(x, y) dxdy = \int \limits_a^b(\int \limits_{f(x)}^{g(x)} F(x, y) dy) dx$		Geometrie	Satz	Globale Theorie ebener Kurven										
Kurvenintegral	$\int \limits_\alpha v$		Geometrie	Definition	Globale Theorie ebener Kurven	$:= \int \limits_a^b \langle \operatorname{v}(\alpha(t)), \alpha'(t) \rangle dt$ mit $\alpha: (a, b) \to \mathbb{R}^2$									
Rotation eines Vektorfelds $\operatorname{v}$	$\operatorname{rot} \operatorname{v}(x, y)$		Geometrie	Definition	Globale Theorie ebener Kurven	$:= \frac{\partial}{\partial p} \operatorname{v}_2 - \frac{\partial}{\partial q} \operatorname{v}_1$ mit $\operatorname{v}(p, q) = \begin{pmatrix} \operatorname{v}_1\\ \operatorname{v}_2 \end{pmatrix}$.			Wenn gleich $0$, nennt man das Vektorfeld konservativ bzw. wirbelfrei						
Satz von Green	Sei $R \subset \mathbb{R}^2$ beschränktes Gebiet mit (stückweise) glatter Randkurve $\partial R$, $v$ Vektorfeld auf Umgebung von $R$. Dann gilt: $$\int \limits_{\partial R} v = \iint \limits_R \operatorname{rot} v(x, y) \, dx \, dy$$		Geometrie	Satz	Globale Theorie ebener Kurven										
Kritischer Punkt von $f$	$x \in \mathbb{R}$, wenn $f'(x) = 0$, $f:\mathbb{R} \to \mathbb{R}$ glatte Funktion		Geometrie	Definition	Globale Theorie ebener Kurven										
Kritischer Wert von $f$	$y \in \mathbb{R}$, wenn $\exists$kritischer Punkt $x$ mit $f(x) = y$		Geometrie	Definition	Globale Theorie ebener Kurven										
Satz von Sard	Sei $U \in \mathbb{R}$ offen, $f:U \to \mathbb{R}$ glatt. Dann hat die Menge der kritischen Werte von $f$ Maß Null.		Geometrie	Satz	Globale Theorie ebener Kurven										
Maß Null einer Menge $M \subset \mathbb{R}$	wenn es, für eine Menge $M \subset \mathbb{R}$, $\forall \varepsilon &gt; 0$ abzählbar viele abgeschlossene Intervalle $[a_i, b_i],$ $i \in \mathbb{N}$ gibt mit $M \subset \bigcup \limits_{i = 1}^{\infty} [a_i, b_i], i\in \mathbb{N}$ und $\sum \limits_{i=1}^{\infty} |b_i - a_i| &lt; \varepsilon$		Geometrie	Definition	Globale Theorie ebener Kurven					$\mathbb{Q} \subset \mathbb{R}$ hat Maß Null, aber $(a, b)$ nicht					
Geschlossene Kurve in der Ebene	Kurve $\alpha:[a, b] \to \mathbb{R}^2$ mit $\alpha(a) = \alpha(b)$, $\alpha'(a) = \alpha'(b)$, $\alpha''(a) = \alpha''(b)$, ...		Geometrie	Definition	Globale Theorie ebener Kurven										
Homotopie zwischen geschlossenen Kurven	Glatte Abbildung $\operatorname{H}:[0, 1] \times [a, b] \to \mathbb{R}^2$ mit $\operatorname{H}(0, t) = \alpha_0(t)$, $\operatorname{H}(1, t) = \alpha_1(t)$, wobei $t \mapsto \operatorname{H}(s, t)$ geschlossene Kurve ist $\forall s \in [0, 1]$ und $\alpha_0, \alpha_1:[a, b] \to \mathbb{R}^2$ geschlossene Kurven		Geometrie	Definition	Globale Theorie ebener Kurven										
Homotopieinvarianz von Kurvenintegralen	$\alpha_0, \alpha_1:[a, b] \to U$ homotope geschlossene Kurven, $U \subset \mathbb{R}^2$ offen, $\operatorname{v}$ Vektorfeld auf $U$ mit $\operatorname{rot} v = 0$, dann $\int \limits_{\alpha_0} v = \int \limits_{\alpha_1} v$		Geometrie	Satz	Globale Theorie ebener Kurven		Interpretation für Physiker: egal, welcher Weg, die Arbeit bleibt gleich								
Wegzusammenhängend	$U \in \mathbb{R}^2$ offen, falls je zwei Punkte $p, q \in U$ durch eine glatte Kurve in $U$ verbunden werden können		Geometrie	Definition	Globale Theorie ebener Kurven										
Einfach zusammenhängend	$U \in \mathbb{R}^2$ offen, wegzusammenhängend und jede geschlossene Kurve in $U$ homotop zu einer konstanten Kurve		Geometrie	Definition	Globale Theorie ebener Kurven										
Konstante Kurve	Kurve $\alpha:[a, b] \to \mathbb{R}^n$ mit $\alpha(t) = p \&gt; \forall t$, $p \in \mathbb{R}^n$		Geometrie	Definition	Globale Theorie ebener Kurven										
$U \subset \mathbb{R}^2$ Sternförmig bzgl $p \in U$	sei $p \in U$, $\forall q \in U \subset \mathbb{R}^2$ liegt die Strecke von $p$ nach $q$ ganz in $U$		Geometrie	Definition	Globale Theorie ebener Kurven			Ist $U$ sternförmig bzgl einem enthaltenen Punkt, so ist $U$ auch einfach zusammenhängend							
Vektorfeld $\vartheta$ mit $\operatorname{rot} \vartheta = 0$	$ \vartheta(x, y) := (\frac{-y}{x^2 + y^2}, \frac{x}{x^2 + y^2})$		Geometrie	Hilfsdefinition / Formel	Globale Theorie ebener Kurven			$\operatorname{rot} \vartheta = \partial x (\frac{x}{x^2 + y^2}) - \partial y (\frac{-y}{x^2 + y^2}) = 0$							
Windungszahl von geschlossener Kurve $\alpha:[a, b] \to \mathbb{R}^2 \setminus \{0\}$ um den Ursprung $0$	$\operatorname{w}(\alpha)$		Geometrie	Definition / Formel	Globale Theorie ebener Kurven	$:= \frac{1}{2\pi} \int \limits_{\alpha} \vartheta = \frac{1}{2\pi} \int \limits_{\alpha} \frac{xdy - ydx}{x^2 + y^2}$	Misst, wie oft $\alpha$ gegen den Uhrzeigersinn um 0 herumläuft				$\vartheta = (\frac{-y}{x^2 + y^2}, \frac{x}{x^2 + y^2})$				
Windungszahl von $\alpha \to \mathbb{R}^2$ um $p \in \mathbb{R}^2 \setminus Bild(\alpha)$	$\operatorname{w}(\alpha, p)$		Geometrie	Definition	Globale Theorie ebener Kurven			$:= \operatorname{w}(\alpha - p)$ mit $(\alpha - p)(t)$ := $\alpha(t) - p \neq 0$							
(Weg)Zusammenhangskomponente von $\mathbb{R}^2 \setminus Bild(\alpha)$	eine maximale (weg)zusammenhängende Teilmenge von $\mathbb{R}^2 \setminus Bild(\alpha)$		Geometrie	Definition	Globale Theorie ebener Kurven			Windungszahl aller Punkte einer Zusammenhangskomponente ist konstant							
Jordanscher Kurvensatz für glatte Kurven	$\alpha: [a, b] \to \mathbb{R}^2$ einfach geschlossene reguläre glatte Kurve. Dann hat $\mathbb{R}^2 \setminus Bild(\alpha)$ genau zwei Zusammenhangskomponenten: $U_0$: unbeschränkt, $\operatorname{w}(\alpha, U_0) = 0$ und $U_1$: beschränkt, $\operatorname{w}(\alpha, U_1) = \pm 1$		Geometrie	Satz	Globale Theorie ebener Kurven										
Einfache Kurve	Kurve $\alpha: [a, b] \to \mathbb{R}^2$, $\alpha(s) = \alpha(t), s &lt; t \Rightarrow s = a, t = b$		Geometrie	Definition	Globale Theorie ebener Kurven		also keine Kreuzungen								
Rotationszahl einer Kurve $\alpha$	$\operatorname{r}(\alpha)$ mit Kurve $\alpha: [a, b] \to \mathbb{R}^2$ reguläre geschlossene Kurve		Geometrie	Definition	Globale Theorie ebener Kurven	$:= \operatorname{w}(\alpha') \in \mathbb{Z}$	entspricht Anzahl der Rotationen des Geschwindigkeitsvektors, wenn wir $\alpha$ durchlaufen	ist $\alpha$ nach Bogenlänge parametrisierte geschlossene Kurve, dann ist $\operatorname{r}(\alpha) = \frac{1}{2\pi} \int \limits_{a}^{b} k(s) \; ds$							
Einheitskreis	$S^1$		Geometrie	Definition	Globale Theorie ebener Kurven	$:= \{u \in \mathbb{R}^2 \; | \; |u| = 1\}$									
Reguläre Homotopie zwischen regulären geschlossenen Kurven	glatte Abbildung $\operatorname{H}: [0, 1] \times [a, b] \to \mathbb{R}^2$ mit $\operatorname{H}(0, t) = \alpha_0(t)$, $\operatorname{H}(1, t) = \alpha_1(t)$, $t \mapsto \operatorname{H}(s, t)$ ist eine reguläre geschlossene Kurve $\forall s \in [0, 1]$		Geometrie	Definition	Globale Theorie ebener Kurven			für reguläre geschlossene Kurven $\alpha_0, \alpha_1: [a, b] \to \mathbb{R}^2$ gilt: $\alpha_0, \alpha_1$ regulär homotop $\Leftrightarrow r(\alpha_0) = r(\alpha_1)$ (Rückrichtung durch Satz von Whitney-Graustein)<br/>Dadurch lässt sich die 1-dimensionale Sphäre in $\mathbb{R}^2$ nicht von Innen nach Außen kehren. Aber die 2-dimensionale Sphäre in $\mathbb{R}^3$ lässt sich von Innen nach Außen kehren!			$\operatorname{r}(\alpha)$ ist die Rotationszahl von $\alpha$				
Index von Vektorfeld $\operatorname{v}$ über Kurve $\alpha$	$\operatorname{ind}(\operatorname{v}, \alpha)$		Geometrie	Definition	Globale Theorie ebener Kurven	$:= \operatorname{w}(v \circ \alpha)$, $v \circ \alpha : [a, b] \to \mathbb{R}^2 \setminus \{0\}$, $\alpha: [a, b] \to \mathbb{R}^2$ geschlossene Kurve, $v$ glattes Vektorfeld	Anzahl der Rotationen von $v$ entlang $\alpha$	(a) seien $\alpha_0, \alpha_1: [a, b] \to \mathbb{R}^2$ geschlossene Kurven, $\operatorname{v}_0, \operatorname{v}_1$ Vektorfelder auf $\mathbb{R}^2$ mit $\operatorname{v}_i \neq 0$ entlang $\alpha_i$, es existiere eine Homotopie $\operatorname{H}$ von $\alpha_0$ zu $\alpha_1$ und eine Homotopie $\operatorname{V}: [0, 1] \times \mathbb{R}^2 \to \mathbb{R}^2$ von $\operatorname{v}_0(x) = \operatorname{V}(0, x)$ zu $\operatorname{v}_1(x) = \operatorname{V}(1, x)$ XXXXXXX<br/>(b) ist $R \subseteq \mathbb{R}^2$ kompakt mit glattem Rand $\partial R$ und $\operatorname{v}$ ein Vektorfeld mit $\operatorname{v} \neq 0$ auf ganz $R$, dann ist $\operatorname{ind}(\operatorname{v}, \partial R) = 0$			$w(\alpha)$ ist die Windungszahl von $\alpha$				
